{
  "name": "GCM",
  "base": "PersistedModel",
  "idInjection": true,
  "options": {
    "validateUpsert": true
  },
  "properties": {
    "registration_ids": {
      "type": [
        "string"
      ],
      "required": true
    },
    "data": {
      "type": "object"
    }
  },
  "validations": [],
  "relations": {},
  "acls": [],
  "methods": {}
}
