{
  "name": "Loyalty",
  "base": "PersistedModel",
  "idInjection": true,
  "options": {
    "validateUpsert": true
  },
  "properties": {
    "totalPoints": {
      "type": "number"
    },
    "points": {
      "type": "number"
    },
    "amount": {
      "type": "number"
    }
  },
  "validations": [],
  "relations": {},
  "acls": [],
  "methods": {}
}
