{
  "name": "LoyaltySeller",
  "base": "PersistedModel",
  "idInjection": true,
  "options": {
    "validateUpsert": true
  },
  "properties": {
    "accumulationAmount": {
      "type": "string",
      "required": true
    },
    "accumulationPoints": {
      "type": "string",
      "required": true
    },
    "redemptionAmount": {
      "type": "string",
      "required": true
    },
    "redemptionPoints": {
      "type": "string",
      "required": true
    },
    "currency": {
      "type": "string",
      "required": true
    },
    "sellerId": {
      "type": "string",
      "required": true
    },
    "sellerName": {
      "type": "string"
    },
    "sellerPhone": {
      "type": "string"
    }
  },
  "validations": [],
  "relations": {},
  "acls": [],
  "methods": {}
}
