{
  "name": "Payment",
  "base": "PersistedModel",
  "idInjection": true,
  "options": {
    "validateUpsert": true
  },
  "properties": {
    "type": {
      "type": "string",
      "required": true
    },
    "createdBy": {
      "type": "string",
      "required": true
    },
    "status": {
      "type": "boolean"
    },
    "paymentStatus": {
      "type": "boolean",
      "required": true
    },
    "paymentType": {
      "type": "string"
    },
    "data": {
      "type": "object"
    }
  },
  "validations": [],
  "relations": {
    "seller": {
      "type": "belongsTo",
      "model": "Seller",
      "foreignKey": "createdBy"
    }
  },
  "acls": [],
  "methods": {}
}
