{
  "name": "SubscriptionPlan",
  "base": "PersistedModel",
  "idInjection": true,
  "options": {
    "validateUpsert": true
  },
  "properties": {},
  "validations": [],
  "relations": {
    "country": {
      "type": "belongsTo",
      "model": "Country",
      "foreignKey": ""
    }
  },
  "acls": [],
  "methods": {}
}
